…
Data Wrangling
dplyr package
library(dplyr)
Boston<-tbl_df(Boston)
select(Boston,crim,zn)
## # A tibble: 506 × 2
##       crim    zn
## *    <dbl> <dbl>
## 1  0.00632  18.0
## 2  0.02731   0.0
## 3  0.02729   0.0
## 4  0.03237   0.0
## 5  0.06905   0.0
## 6  0.02985   0.0
## 7  0.08829  12.5
## 8  0.14455  12.5
## 9  0.21124  12.5
## 10 0.17004  12.5
## # ... with 496 more rows
filter(Boston,crim>40)




arrange(Boston,lstat)
# A tibble: 506 x 14
      crim    zn indus  chas    nox    rm   age    dis   rad   tax ptratio  black lstat  medv
     <dbl> <dbl> <dbl> <int>  <dbl> <dbl> <dbl>  <dbl> <int> <dbl>   <dbl>  <dbl> <dbl> <dbl>
 1 1.46336     0 19.58     0 0.6050 7.489  90.8 1.9709     5   403    14.7 374.43  1.73  50.0
 2 1.83377     0 19.58     1 0.6050 7.802  98.2 2.0407     5   403    14.7 389.61  1.92  50.0
 3 0.03359    75  2.95     0 0.4280 7.024  15.8 5.4011     3   252    18.3 395.62  1.98  34.9
 4 0.57529     0  6.20     0 0.5070 8.337  73.3 3.8384     8   307    17.4 385.91  2.47  41.7
 5 0.08664    45  3.44     0 0.4370 7.178  26.3 6.4798     5   398    15.2 390.49  2.87  36.4
 6 0.02009    95  2.68     0 0.4161 8.034  31.9 5.1180     4   224    14.7 390.55  2.88  50.0
 7 0.03237     0  2.18     0 0.4580 6.998  45.8 6.0622     3   222    18.7 394.63  2.94  33.4
 8 6.53876     0 18.10     1 0.6310 7.016  97.5 1.2024    24   666    20.2 392.05  2.96  50.0
 9 0.01381    80  0.46     0 0.4220 7.875  32.0 5.6484     4   255    14.4 394.23  2.97  50.0
10 0.09604    40  6.41     0 0.4470 6.854  42.8 4.2673     4   254    17.6 396.90  2.98  32.0
# ... with 496 more rows
…
